%YAML 1.1
%TAG !u! tag:unity3d.com,2011:
--- !u!114 &11400000
MonoBehaviour:
  m_ObjectHideFlags: 0
  m_CorrespondingSourceObject: {fileID: 0}
  m_PrefabInstance: {fileID: 0}
  m_PrefabAsset: {fileID: 0}
  m_GameObject: {fileID: 0}
  m_Enabled: 1
  m_EditorHideFlags: 0
  m_Script: {fileID: 11500000, guid: 8a3bdb2cd68f901469e7cc149151eb49, type: 3}
  m_Name: Horror02
  m_EditorClassIdentifier: 
  debugViews:
    m_Enabled: 1
    m_Settings:
      mode: 0
      depth:
        scale: 1
      motionVectors:
        sourceOpacity: 1
        motionImageOpacity: 0
        motionImageAmplitude: 16
        motionVectorsOpacity: 1
        motionVectorsResolution: 48
        motionVectorsAmplitude: 64
  fog:
    m_Enabled: 0
    m_Settings:
      excludeSkybox: 0
  antialiasing:
    m_Enabled: 1
    m_Settings:
      method: 0
      fxaaSettings:
        preset: 4
      taaSettings:
        jitterSpread: 0.75
        sharpen: 0.3
        stationaryBlending: 0.95
        motionBlending: 0.85
  ambientOcclusion:
    m_Enabled: 0
    m_Settings:
      intensity: 0.35
      radius: 2.04
      sampleCount: 16
      downsampling: 1
      forceForwardCompatibility: 1
      ambientOnly: 0
      highPrecision: 1
  screenSpaceReflection:
    m_Enabled: 1
    m_Settings:
      reflection:
        blendType: 0
        reflectionQuality: 2
        maxDistance: 300
        iterationCount: 771
        stepSize: 1
        widthModifier: 8.9
        reflectionBlur: 2.7
        reflectBackfaces: 0
      intensity:
        reflectionMultiplier: 1
        fadeDistance: 0
        fresnelFade: 0.69
        fresnelFadePower: 0.1
      screenEdgeMask:
        intensity: 0
  depthOfField:
    m_Enabled: 0
    m_Settings:
      focusDistance: 10
      aperture: 0.9
      focalLength: 44
      useCameraFov: 1
      kernelSize: 3
  motionBlur:
    m_Enabled: 1
    m_Settings:
      shutterAngle: 175
      sampleCount: 8
      frameBlending: 0
  eyeAdaptation:
    m_Enabled: 1
    m_Settings:
      lowPercent: 64.132744
      highPercent: 94.13275
      minLuminance: -4.69
      maxLuminance: -2.87
      keyValue: 0.25
      dynamicKeyValue: 1
      adaptationType: 0
      speedUp: 2
      speedDown: 1
      logMin: -1
      logMax: 16
  bloom:
    m_Enabled: 1
    m_Settings:
      bloom:
        intensity: 1.08
        threshold: 1
        softKnee: 0.269
        radius: 2.48
        antiFlicker: 1
      lensDirt:
        texture: {fileID: 2800000, guid: 7a051dbda2d7bc447bee412427cd311e, type: 3}
        intensity: 2.38
  colorGrading:
    m_Enabled: 1
    m_Settings:
      tonemapping:
        tonemapper: 0
        neutralBlackIn: 0.02
        neutralWhiteIn: 10
        neutralBlackOut: 0
        neutralWhiteOut: 10
        neutralWhiteLevel: 5.3
        neutralWhiteClip: 10
      basic:
        postExposure: -0.37
        temperature: 48
        tint: 15
        hueShift: -85
        saturation: 1.31
        contrast: 0.64
      channelMixer:
        red: {x: 0.48, y: -0.3, z: -0.02}
        green: {x: 0, y: 1, z: 0}
        blue: {x: 0, y: 0, z: 1}
        currentEditingChannel: 0
      colorWheels:
        mode: 0
        log:
          slope: {r: 1, g: 0.9632233, b: 0.97950655, a: 0}
          power: {r: 1, g: 1, b: 1, a: 0}
          offset: {r: 0.9588809, g: 0.91776335, b: 1, a: 0}
        linear:
          lift: {r: 1, g: 0.9303492, b: 0.8882011, a: 0}
          gamma: {r: 0.89658815, g: 1, b: 0.94992375, a: 0}
          gain: {r: 0.8050264, g: 0.84214896, b: 1, a: 0}
      curves:
        master:
          curve:
            serializedVersion: 2
            m_Curve:
            - serializedVersion: 3
              time: 0
              value: 0
              inSlope: 1
              outSlope: 1
              tangentMode: 0
              weightedMode: 0
              inWeight: 0.33333334
              outWeight: 0.33333334
            - serializedVersion: 3
              time: 1
              value: 1
              inSlope: 1
              outSlope: 1
              tangentMode: 0
              weightedMode: 0
              inWeight: 0.33333334
              outWeight: 0.33333334
            m_PreInfinity: 2
            m_PostInfinity: 2
            m_RotationOrder: 0
          m_Loop: 0
          m_ZeroValue: 0
          m_Range: 1
        red:
          curve:
            serializedVersion: 2
            m_Curve:
            - serializedVersion: 3
              time: 0
              value: 0
              inSlope: 1
              outSlope: 1
              tangentMode: 0
              weightedMode: 0
              inWeight: 0.33333334
              outWeight: 0.33333334
            - serializedVersion: 3
              time: 1
              value: 1
              inSlope: 1
              outSlope: 1
              tangentMode: 0
              weightedMode: 0
              inWeight: 0.33333334
              outWeight: 0.33333334
            m_PreInfinity: 2
            m_PostInfinity: 2
            m_RotationOrder: 4
          m_Loop: 0
          m_ZeroValue: 0
          m_Range: 1
        green:
          curve:
            serializedVersion: 2
            m_Curve:
            - serializedVersion: 3
              time: 0
              value: 0
              inSlope: 1
              outSlope: 1
              tangentMode: 0
              weightedMode: 0
              inWeight: 0.33333334
              outWeight: 0.33333334
            - serializedVersion: 3
              time: 1
              value: 1
              inSlope: 1
              outSlope: 1
              tangentMode: 0
              weightedMode: 0
              inWeight: 0.33333334
              outWeight: 0.33333334
            m_PreInfinity: 2
            m_PostInfinity: 2
            m_RotationOrder: 4
          m_Loop: 0
          m_ZeroValue: 0
          m_Range: 1
        blue:
          curve:
            serializedVersion: 2
            m_Curve:
            - serializedVersion: 3
              time: 0
              value: 0
              inSlope: 1
              outSlope: 1
              tangentMode: 0
              weightedMode: 0
              inWeight: 0.33333334
              outWeight: 0.33333334
            - serializedVersion: 3
              time: 1
              value: 1
              inSlope: 1
              outSlope: 1
              tangentMode: 0
              weightedMode: 0
              inWeight: 0.33333334
              outWeight: 0.33333334
            m_PreInfinity: 2
            m_PostInfinity: 2
            m_RotationOrder: 4
          m_Loop: 0
          m_ZeroValue: 0
          m_Range: 1
        hueVShue:
          curve:
            serializedVersion: 2
            m_Curve: []
            m_PreInfinity: 2
            m_PostInfinity: 2
            m_RotationOrder: 4
          m_Loop: 1
          m_ZeroValue: 0.5
          m_Range: 1
        hueVSsat:
          curve:
            serializedVersion: 2
            m_Curve: []
            m_PreInfinity: 2
            m_PostInfinity: 2
            m_RotationOrder: 4
          m_Loop: 1
          m_ZeroValue: 0.5
          m_Range: 1
        satVSsat:
          curve:
            serializedVersion: 2
            m_Curve: []
            m_PreInfinity: 2
            m_PostInfinity: 2
            m_RotationOrder: 4
          m_Loop: 0
          m_ZeroValue: 0.5
          m_Range: 1
        lumVSsat:
          curve:
            serializedVersion: 2
            m_Curve: []
            m_PreInfinity: 2
            m_PostInfinity: 2
            m_RotationOrder: 4
          m_Loop: 0
          m_ZeroValue: 0.5
          m_Range: 1
        e_CurrentEditingCurve: 0
        e_CurveY: 1
        e_CurveR: 0
        e_CurveG: 0
        e_CurveB: 0
  userLut:
    m_Enabled: 1
    m_Settings:
      lut: {fileID: 2800000, guid: 6ece7d54efd9cad44828a82e920d64ae, type: 3}
      contribution: 0.337
  chromaticAberration:
    m_Enabled: 1
    m_Settings:
      spectralTexture: {fileID: 2800000, guid: 7a051dbda2d7bc447bee412427cd311e, type: 3}
      intensity: 0.307
  grain:
    m_Enabled: 0
    m_Settings:
      colored: 1
      intensity: 0.184
      size: 0.71
      luminanceContribution: 0.68
  vignette:
    m_Enabled: 1
    m_Settings:
      mode: 0
      color: {r: 0, g: 0, b: 0, a: 1}
      center: {x: 0.5, y: 0.5}
      intensity: 0.2
      smoothness: 0.769
      roundness: 0.896
      mask: {fileID: 0}
      opacity: 1
      rounded: 1
  dithering:
    m_Enabled: 0
  monitors:
    currentMonitorID: 0
    refreshOnPlay: 0
    histogramMode: 3
    waveformExposure: 0.12
    waveformY: 0
    waveformR: 1
    waveformG: 1
    waveformB: 1
    paradeExposure: 0.12
    vectorscopeExposure: 0.12
    vectorscopeShowBackground: 1
